{
    "products":
    [
        {
            "id": 1,
            "type": "Fruit",
            "name": "Apple",
            "price": "194,87"
        },
        {
            "id": 2,
            "type": "Fruit",
            "name": "Watermelon",
            "price": "186,29"
        },
        {
            "id": 3,
            "type": "Fruit",
            "name": "Orange",
            "price": "127,01"
        },
        {
            "id": 4,
            "type": "Fruit",
            "name": "Pear",
            "price": "348,41"
        },
        {
            "id": 5,
            "type": "Fruit",
            "name": "Cherry",
            "price": "238,67"
        },
        {
            "id": 6,
            "type": "Fruit",
            "name": "Strawberry",
            "price": "17,97"
        },
        {
            "id": 7,
            "type": "Fruit",
            "name": "Nectarine",
            "price": "128,52"
        },
        {
            "id": 8,
            "type": "Fruit",
            "name": "Grape",
            "price": "263,49"
        },
        {
            "id": 9,
            "type": "Fruit",
            "name": "Mango",
            "price": "115,14"
        },
        {
            "id": 10,
            "type": "Fruit",
            "name": "Blueberry",
            "price": "262,16"
        },
        {
            "id": 11,
            "type": "Fruit",
            "name": "Pomegranate",
            "price": "101,31"
        },
        {
            "id": 12,
            "type": "Fruit",
            "name": "Starfruit",
            "price": "150,83"
        },
        {
            "id": 13,
            "type": "Fruit",
            "name": "Plum",
            "price": "142,08"
        },
        {
            "id": 14,
            "type": "Fruit",
            "name": "Banana",
            "price": "278,62"
        },
        {
            "id": 15,
            "type": "Fruit",
            "name": "Raspberry",
            "price": "94,98"
        },
        {
            "id": 16,
            "type": "Fruit",
            "name": "Mandarin",
            "price": "258,1"
        },
        {
            "id": 17,
            "type": "Fruit",
            "name": "Jackfruit",
            "price": "100,31"
        },
        {
            "id": 18,
            "type": "Fruit",
            "name": "Papaya",
            "price": "349,78"
        },
        {
            "id": 19,
            "type": "Fruit",
            "name": "Kiwi",
            "price": "213,93"
        },
        {
            "id": 20,
            "type": "Fruit",
            "name": "Pineapple",
            "price": "270,58"
        },
        {
            "id": 21,
            "type": "Fruit",
            "name": "Lime",
            "price": "149,52"
        },
        {
            "id": 22,
            "type": "Fruit",
            "name": "Lemon",
            "price": "136,89"
        },
        {
            "id": 23,
            "type": "Fruit",
            "name": "Apricot",
            "price": "78,31"
        },
        {
            "id": 24,
            "type": "Fruit",
            "name": "Grapefruit",
            "price": "45,72"
        },
        {
            "id": 25,
            "type": "Fruit",
            "name": "Melon",
            "price": "109,86"
        },
        {
            "id": 26,
            "type": "Fruit",
            "name": "Coconut",
            "price": "242,86"
        },
        {
            "id": 27,
            "type": "Fruit",
            "name": "Avocado",
            "price": "176,03"
        },
        {
            "id": 28,
            "type": "Fruit",
            "name": "Peach",
            "price": "187,63"
        }        
    ]
}